%YAML 1.1
%TAG !u! tag:unity3d.com,2011:
--- !u!1 &4062612455565063844
GameObject:
  m_ObjectHideFlags: 0
  m_CorrespondingSourceObject: {fileID: 0}
  m_PrefabInstance: {fileID: 0}
  m_PrefabAsset: {fileID: 0}
  serializedVersion: 6
  m_Component:
  - component: {fileID: 4062612455565063850}
  - component: {fileID: 4062612455565063851}
  m_Layer: 0
  m_Name: VRControllerGO
  m_TagString: Player
  m_Icon: {fileID: 0}
  m_NavMeshLayer: 0
  m_StaticEditorFlags: 0
  m_IsActive: 1
--- !u!4 &4062612455565063850
Transform:
  m_ObjectHideFlags: 0
  m_CorrespondingSourceObject: {fileID: 0}
  m_PrefabInstance: {fileID: 0}
  m_PrefabAsset: {fileID: 0}
  m_GameObject: {fileID: 4062612455565063844}
  m_LocalRotation: {x: 0, y: 0, z: 0, w: 1}
  m_LocalPosition: {x: 0, y: 0, z: 0}
  m_LocalScale: {x: 1, y: 1, z: 1}
  m_Children: []
  m_Father: {fileID: 0}
  m_RootOrder: 0
  m_LocalEulerAnglesHint: {x: 0, y: 0, z: 0}
--- !u!114 &4062612455565063851
MonoBehaviour:
  m_ObjectHideFlags: 0
  m_CorrespondingSourceObject: {fileID: 0}
  m_PrefabInstance: {fileID: 0}
  m_PrefabAsset: {fileID: 0}
  m_GameObject: {fileID: 4062612455565063844}
  m_Enabled: 1
  m_EditorHideFlags: 0
  m_Script: {fileID: 11500000, guid: 22b358199dc81de498b93fb66dd12f0f, type: 3}
  m_Name: 
  m_EditorClassIdentifier: 
  controllerLineRenderer: {fileID: 0}
  controllerModel: {fileID: 0}
  centreEyeTracker: {fileID: 0}
  headsetRig: {fileID: 0}
  warpSpeed: 0.75
  FinaleWarpDistance: 150
  FinaleWarpSpeed: 1
  maxGrabDistance: 200
  grabMask:
    serializedVersion: 2
    m_Bits: 256
  grabTime: 1
